<?xml version="1.0" standalone="no"?>
<!DOCTYPE svg PUBLIC "-//W3C//DTD SVG 1.1//EN" "http://www.w3.org/Graphics/SVG/1.1/DTD/svg11.dtd">
<svg xmlns="http://www.w3.org/2000/svg">
<metadata>Copyright (C) 2014 by original authors @ fontello.com</metadata>
<defs>
<font id="font-icons" horiz-adv-x="1000" >
<font-face font-family="font-icons" font-weight="400" font-stretch="normal" units-per-em="1000" ascent="850" descent="-150" />
<missing-glyph horiz-adv-x="1000" />
<glyph glyph-name="search" unicode="&#xe802;" d="m643 386q0 103-74 176t-176 74t-177-74t-73-176t73-177t177-73t176 73t74 177z m286-465q0-29-22-50t-50-21q-30 0-50 21l-191 191q-100-69-223-69q-80 0-153 31t-125 84t-84 125t-31 153t31 152t84 126t125 84t153 31t152-31t126-84t84-126t31-152q0-123-69-223l191-191q21-21 21-51z" horiz-adv-x="928.6" />
<glyph glyph-name="up-circle" unicode="&#xe813;" d="m1000 349q0-136-67-251t-182-182t-251-67t-251 67t-182 182t-67 251t67 251t182 182t251 67t251-67t182-182t67-251z m-339-118l71 71l-232 233l-232-233l71-71l161 161z" horiz-adv-x="1000" />
<glyph glyph-name="user" unicode="&#xe800;" d="m786 66q0-67-41-106t-108-39h-488q-67 0-108 39t-41 106q0 30 2 58t8 61t15 60t24 55t34 45t48 30t62 11q5 0 24-12t41-27t60-27t75-12t74 12t61 27t41 27t24 12q34 0 62-11t48-30t34-45t24-55t15-60t8-61t2-58z m-179 498q0-88-63-151t-151-63t-152 63t-62 151t62 152t152 63t151-63t63-152z" horiz-adv-x="785.7" />
<glyph glyph-name="camera" unicode="&#xe80e;" d="m536 475q66 0 113-47t47-114t-47-113t-113-47t-114 47t-47 113t47 114t114 47z m393 232q59 0 101-42t41-101v-500q0-59-41-101t-101-42h-786q-59 0-101 42t-42 101v500q0 59 42 101t101 42h125l28 76q11 27 39 47t58 20h286q29 0 57-20t39-47l29-76h125z m-393-643q103 0 176 74t74 176t-74 177t-176 73t-177-73t-73-177t73-176t177-74z" horiz-adv-x="1071.4" />
<glyph glyph-name="th" unicode="&#xe80c;" d="m286 154v-108q0-22-16-37t-38-16h-178q-23 0-38 16t-16 37v108q0 22 16 38t38 15h178q22 0 38-15t16-38z m0 285v-107q0-22-16-38t-38-15h-178q-23 0-38 15t-16 38v107q0 23 16 38t38 16h178q22 0 38-16t16-38z m357-285v-108q0-22-16-37t-38-16h-178q-23 0-38 16t-16 37v108q0 22 16 38t38 15h178q23 0 38-15t16-38z m-357 571v-107q0-22-16-38t-38-16h-178q-23 0-38 16t-16 38v107q0 22 16 38t38 16h178q22 0 38-16t16-38z m357-286v-107q0-22-16-38t-38-15h-178q-23 0-38 15t-16 38v107q0 23 16 38t38 16h178q23 0 38-16t16-38z m357-285v-108q0-22-16-37t-38-16h-178q-22 0-38 16t-16 37v108q0 22 16 38t38 15h178q23 0 38-15t16-38z m-357 571v-107q0-22-16-38t-38-16h-178q-23 0-38 16t-16 38v107q0 22 16 38t38 16h178q23 0 38-16t16-38z m357-286v-107q0-22-16-38t-38-15h-178q-22 0-38 15t-16 38v107q0 23 16 38t38 16h178q23 0 38-16t16-38z m0 286v-107q0-22-16-38t-38-16h-178q-22 0-38 16t-16 38v107q0 22 16 38t38 16h178q23 0 38-16t16-38z" horiz-adv-x="1000" />
<glyph glyph-name="lock" unicode="&#xe801;" d="m179 421h285v108q0 59-42 101t-101 41t-101-41t-41-101v-108z m464-53v-322q0-22-16-37t-38-16h-535q-23 0-38 16t-16 37v322q0 22 16 38t38 15h17v108q0 102 74 176t176 74t177-74t73-176v-108h18q23 0 38-15t16-38z" horiz-adv-x="642.9" />
<glyph glyph-name="trash" unicode="&#xe80f;" d="m286 439v-321q0-8-5-13t-13-5h-36q-8 0-13 5t-5 13v321q0 8 5 13t13 5h36q8 0 13-5t5-13z m143 0v-321q0-8-5-13t-13-5h-36q-8 0-13 5t-5 13v321q0 8 5 13t13 5h36q8 0 13-5t5-13z m142 0v-321q0-8-5-13t-12-5h-36q-8 0-13 5t-5 13v321q0 8 5 13t13 5h36q7 0 12-5t5-13z m72-404v529h-500v-529q0-12 4-22t8-15t6-5h464q2 0 6 5t8 15t4 22z m-375 601h250l-27 65q-4 5-9 6h-177q-6-1-10-6z m518-18v-36q0-8-5-13t-13-5h-54v-529q0-46-26-80t-63-34h-464q-37 0-63 33t-27 79v531h-53q-8 0-13 5t-5 13v36q0 8 5 13t13 5h172l39 93q9 21 31 35t44 15h178q22 0 44-15t30-35l39-93h173q8 0 13-5t5-13z" horiz-adv-x="785.7" />
<glyph glyph-name="phone" unicode="&#xe808;" d="m786 158q0-15-6-39t-12-38q-11-28-68-60q-52-28-103-28q-16 0-30 2t-32 7t-26 8t-31 11t-28 10q-54 20-97 47q-72 44-148 120t-120 148q-27 43-46 97q-2 5-10 28t-12 31t-8 26t-7 32t-2 29q0 52 29 104q31 56 59 68q14 6 38 12t39 6q8 0 12-2q10-3 30-43q6-10 16-30t20-35t17-30q2-2 10-14t12-20t4-16q0-11-16-28t-35-30t-34-30t-16-25q0-5 3-13t4-11t8-14t7-10q42-77 97-132t131-97q1 0 10-6t14-8t11-5t13-2q10 0 25 15t30 35t31 35t28 16q7 0 15-4t20-12t14-10q14-8 30-17t35-20t31-17q39-19 42-29q2-4 2-12z" horiz-adv-x="785.7" />
<glyph glyph-name="basket" unicode="&#xe80b;" d="m357-7q0-30-21-51t-50-21t-51 21t-21 51t21 50t51 21t50-21t21-50z m500 0q0-30-21-51t-50-21t-51 21t-21 51t21 50t51 21t50-21t21-50z m72 607v-286q0-13-9-23t-23-12l-583-68q1-4 3-12t3-15t1-13q0-8-13-35h513q15 0 26-11t10-25t-10-25t-26-11h-571q-14 0-25 11t-11 25q0 8 6 22t17 33t11 21l-98 460h-114q-15 0-25 10t-11 25t11 26t25 10h143q9 0 16-3t11-9t7-14t4-15t3-16t3-14h670q14 0 25-11t11-25z" horiz-adv-x="928.6" />
<glyph glyph-name="down-big" unicode="&#xe806;" d="m899 386q0-30-21-50l-363-364q-22-21-51-21q-29 0-50 21l-363 364q-21 20-21 50q0 29 21 51l41 41q22 21 51 21q29 0 50-21l164-164v393q0 29 21 50t51 22h71q29 0 50-22t21-50v-393l164 164q21 21 51 21q29 0 50-21l42-42q21-21 21-50z" horiz-adv-x="928.6" />
<glyph glyph-name="mail-alt" unicode="&#xe809;" d="m1000 454v-443q0-37-26-63t-63-27h-822q-36 0-63 27t-26 63v443q25-28 56-49q202-137 278-192q32-24 51-37t53-27t61-13h2q28 0 61 13t53 27t51 37q95 68 278 192q32 22 56 49z m0 164q0-44-27-84t-68-69q-210-146-262-181q-5-4-23-17t-30-22t-29-18t-33-15t-27-5h-2q-12 0-27 5t-33 15t-29 18t-30 22t-23 17q-51 35-147 101t-114 80q-35 23-65 64t-31 77q0 43 23 72t66 29h822q36 0 62-26t27-63z" horiz-adv-x="1000" />
<glyph glyph-name="right-big" unicode="&#xe804;" d="m821 314q0-30-20-50l-363-364q-22-20-51-20q-29 0-50 20l-42 42q-22 21-22 51t22 51l163 163h-393q-29 0-47 21t-18 51v71q0 30 18 51t47 20h393l-163 164q-22 21-22 51t22 50l42 42q21 21 50 21q29 0 51-21l363-363q20-20 20-51z" horiz-adv-x="857.1" />
<glyph glyph-name="up-big" unicode="&#xe803;" d="m899 308q0-28-21-50l-42-42q-21-21-50-21q-30 0-51 21l-164 164v-393q0-29-20-47t-51-19h-71q-30 0-51 19t-21 47v393l-164-164q-20-21-50-21t-50 21l-42 42q-21 21-21 50q0 30 21 51l363 363q20 21 50 21q30 0 51-21l363-363q21-22 21-51z" horiz-adv-x="928.6" />
<glyph glyph-name="list" unicode="&#xe80d;" d="m143 118v-107q0-7-5-13t-13-5h-107q-7 0-13 5t-5 13v107q0 7 5 12t13 6h107q7 0 13-6t5-12z m0 214v-107q0-7-5-13t-13-5h-107q-7 0-13 5t-5 13v107q0 7 5 13t13 5h107q7 0 13-5t5-13z m0 214v-107q0-7-5-12t-13-6h-107q-7 0-13 6t-5 12v107q0 8 5 13t13 5h107q7 0 13-5t5-13z m857-428v-107q0-7-5-13t-13-5h-750q-7 0-12 5t-6 13v107q0 7 6 12t12 6h750q7 0 13-6t5-12z m-857 643v-107q0-8-5-13t-13-5h-107q-7 0-13 5t-5 13v107q0 7 5 12t13 6h107q7 0 13-6t5-12z m857-429v-107q0-7-5-13t-13-5h-750q-7 0-12 5t-6 13v107q0 7 6 13t12 5h750q7 0 13-5t5-13z m0 214v-107q0-7-5-12t-13-6h-750q-7 0-12 6t-6 12v107q0 8 6 13t12 5h750q7 0 13-5t5-13z m0 215v-107q0-8-5-13t-13-5h-750q-7 0-12 5t-6 13v107q0 7 6 12t12 6h750q7 0 13-6t5-12z" horiz-adv-x="1000" />
<glyph glyph-name="asterisk" unicode="&#xe80a;" d="m827 264q26-14 33-43t-7-55l-35-61q-15-26-44-33t-54 7l-149 85v-171q0-29-21-50t-50-22h-71q-29 0-51 22t-21 50v171l-148-85q-26-15-55-7t-43 33l-36 61q-14 26-7 55t34 43l148 86l-148 86q-26 14-34 43t7 55l36 61q15 26 43 33t55-7l148-85v171q0 29 21 50t51 22h71q29 0 50-22t21-50v-171l149 85q26 15 54 7t44-33l35-62q15-25 7-54t-33-43l-148-86z" horiz-adv-x="928.6" />
<glyph glyph-name="attention" unicode="&#xe807;" d="m0 350q0 95 37 182t100 149t149 100t183 37q95 0 181-37t150-100t100-149t37-182q0-95-37-182t-100-150t-150-100t-181-37q-96 0-183 37t-149 100t-100 150t-37 182z m387 196l27-244q2-21 17-35t36-17q24-3 43 12t21 40l27 244v17q-4 35-31 58t-63 19t-58-31t-19-63z m12-411q0-30 22-52t51-21t52 21t22 52t-22 52q-20 20-52 20t-51-20q-22-22-22-52z" horiz-adv-x="937.5" />
<glyph glyph-name="down-circle" unicode="&#xe810;" d="m1000 349q0-136-67-251t-182-182t-251-67t-251 67t-182 182t-67 251t67 251t182 182t251 67t251-67t182-182t67-251z m-500-186l232 233l-71 71l-161-161l-161 161l-71-71z" horiz-adv-x="1000" />
<glyph glyph-name="left-circle" unicode="&#xe811;" d="m1000 349q0-136-67-251t-182-182t-251-67t-251 67t-182 182t-67 251t67 251t182 182t251 67t251-67t182-182t67-251z m-453-232l71 71l-161 161l161 161l-71 71l-233-232z" horiz-adv-x="1000" />
<glyph glyph-name="right-circle" unicode="&#xe812;" d="m1000 349q0-136-67-251t-182-182t-251-67t-251 67t-182 182t-67 251t67 251t182 182t251 67t251-67t182-182t67-251z m-547-232l233 232l-233 232l-71-71l161-161l-161-161z" horiz-adv-x="1000" />
<glyph glyph-name="left-big" unicode="&#xe805;" d="m857 350v-71q0-30-18-51t-47-21h-393l164-164q21-20 21-50t-21-50l-42-43q-21-20-51-20q-29 0-50 20l-364 364q-20 21-20 50q0 29 20 51l364 363q21 21 50 21q29 0 51-21l42-42q21-21 21-50t-21-51l-164-164h393q29 0 47-20t18-51z" horiz-adv-x="857.1" />
</font>
</defs>
</svg>